statslab - 14 Basic Regression
…
Figure 14.2: Example of observed value, fitted value, and residual.

Now say we want to compute both the fitted value, \(\widehat{y} = b_0 + b_1 x\), and the residual, \(y - \widehat{y}\), for all 12305 rows in our nba data set. We could repeat the previous calculations we performed by hand 12305 times, but that would be somewhat time-consuming. Instead, let’s do this using a computer with the get_regression_points() function. Just like the get_regression_table() function, the get_regression_points() function is a “wrapper” function. However, this function returns a different output. Let’s apply the get_regression_points() function to score_model, which is where we saved our lm() model in the previous section. In Table @ref(tab:regression-points-1) we present the results of only the 21st through 24th courses for brevity’s sake.

model %>%
    # expand model result
    augment() %>%
    # select relevant columns
    select(c("pts", "ast", ".fitted", ".resid")) %>%
    # rename columns
    rename_at(vars(c(".fitted", ".resid")), ~c("pts_hat", "residual"))

# A tibble: 12,305 × 4
     pts   ast pts_hat residual
   <dbl> <dbl>   <dbl>    <dbl>
 1   5.7   3.1   11.0     -5.30
 2   2.3   0.3    4.84    -2.54
 3   0.8   0.4    5.06    -4.26
 4   3.7   0.6    5.50    -1.80
 5   2.4   0.2    4.62    -2.22
 6   8.2   1      6.38     1.82
 7  17.2   3.4   11.7      5.54
 8  14.9   1.6    7.70     7.20
 9   5.7   1.3    7.04    -1.34
10   6.9   3     10.8     -3.88
# ℹ 12,295 more rows
…
