statslab - 6 Manipulating Data
…
Let’s see some of these characteristics in action. To do so, we’ll first load the data we downloaded back in Section 3.2. Run the following:

nba <- read_csv("./data/nba_all_seasons.csv", na = c("Undrafted"))

Note that we have utilized the na argument here. This tells read_csv that we would like any values found in the file that match "Undrafted" to be treated as “missing”. R uses NA to represent missing values and so any "Undrafted" values will be converted in to NA.

6.2 filter

The filter() function allows you to specify criteria about the values of a variable in your data set and then filters out only the rows that match that criteria.

The team_abbreviation for the New York Knicks is "NYK". Run the following and look at the results in RStudio’s spreadsheet viewer to ensure that only players on the Knicks heading to Portland are chosen here:

filter(nba, team_abbreviation=="NYK")

# A tibble: 410 × 22
    ...1 player_name team_abbreviation   age player_height player_weight college
   <dbl> <chr>       <chr>             <dbl>         <dbl>         <dbl> <chr>  
 1    81 Herb Willi… NYK                  39          211.         118.  Ohio S…
 2   146 Allan Hous… NYK                  26          198.          90.7 Tennes…
 3   195 Buck Willi… NYK                  37          203.         102.  Maryla…
 4   204 Charles Oa… NYK                  33          206.         111.  Virgin…
 5   209 Chris Chil… NYK                  29          190.          88.5 Boise …
 6   212 Chris Jent  NYK                  27          201.          99.8 Ohio S…
 7   218 Charlie Wa… NYK                  26          188.          86.2 Florid…
 8   230 Scott Broo… NYK                  31          180.          74.8 Califo…
 9   293 Walter McC… NYK                  23          208.         104.  Kentuc…
10   347 Larry John… NYK                  28          201.         119.  Nevada…
# ℹ 400 more rows
# ℹ 15 more variables: country <chr>, draft_year <dbl>, draft_round <dbl>,
#   draft_number <dbl>, gp <dbl>, pts <dbl>, reb <dbl>, ast <dbl>,
#   net_rating <dbl>, oreb_pct <dbl>, dreb_pct <dbl>, usg_pct <dbl>,
#   ts_pct <dbl>, ast_pct <dbl>, season <chr>
…
# A tibble: 1 × 1
  total_points
         <dbl>
1         7.81

6.5 group_by

Say instead of a single mean number of points for the entire NBA, you would like a mean number of points separately for each college players attended. In other words, we would like to compute the mean number of points split by college. We can do this by “grouping” the pts measurements by the values of another variable, in this case by the values of the variable college . Run the following code:

nba %>%
    group_by(college) %>% 
    summarize(mean = mean(pts),
            std_dev = sd(pts))

# A tibble: 345 × 3
   college                   mean std_dev
   <chr>                    <dbl>   <dbl>
 1 ""                        9.9    3.79 
 2 "Alabama"                 9.21   5.83 
 3 "Alabama A&M"             2.2   NA    
 4 "Alabama Huntsville"      2.05   0.778
 5 "Alabama-Birmingham"      2.4    1.42 
 6 "Albany State (GA)"       0.45   0.212
 7 "American International"  8.34   2.71 
 8 "American University"     6      8.49 
 9 "Arizona"                 8.93   5.83 
10 "Arizona St."             0     NA    
# ℹ 335 more rows

This code is similar to the previous code that created summary_round, but with an extra group_by(month) added before the summarize(). Grouping the nba dataset by college and then applying the summarize() functions yields a data frame that displays the mean and standard deviation temperature split by the different colleges that appear in the data set.

It is important to note that the group_by() function doesn’t change data frames by itself. Rather it changes the meta-data, or data about the data, specifically the grouping structure. It is only after we apply the summarize() function that the data frame changes.

For example, when we run this code:

nba

# A tibble: 12,305 × 22
    ...1 player_name team_abbreviation   age player_height player_weight college
   <dbl> <chr>       <chr>             <dbl>         <dbl>         <dbl> <chr>  
 1     0 Dennis Rod… CHI                  36          198.          99.8 Southe…
 2     1 Dwayne Sch… LAC                  28          216.         118.  Florida
 3     2 Earl Curet… TOR                  39          206.          95.3 Detroi…
 4     3 Ed O'Bannon DAL                  24          203.         101.  UCLA   
 5     4 Ed Pinckney MIA                  34          206.         109.  Villan…
 6     5 Eddie John… HOU                  38          201.          97.5 Illino…
 7     6 Eddie Jones LAL                  25          198.          86.2 Temple 
 8     7 Elden Camp… LAL                  28          213.         113.  Clemson
 9     8 Eldridge R… ATL                  29          193.          86.2 Washin…
10     9 Elliot Per… MIL                  28          183.          72.6 Memphis
# ℹ 12,295 more rows
# ℹ 15 more variables: country <chr>, draft_year <dbl>, draft_round <dbl>,
#   draft_number <dbl>, gp <dbl>, pts <dbl>, reb <dbl>, ast <dbl>,
#   net_rating <dbl>, oreb_pct <dbl>, dreb_pct <dbl>, usg_pct <dbl>,
#   ts_pct <dbl>, ast_pct <dbl>, season <chr>

Observe that the first line of the output reads # A tibble: 12305 x 22. This is an example of meta-data, in this case the number of observations/rows and variables/columns in nba. The actual data itself are the subsequent table of values. Now let’s pipe the nba data frame into group_by(college):

nba %>% 
  group_by(college)

# A tibble: 12,305 × 22
# Groups:   college [345]
    ...1 player_name team_abbreviation   age player_height player_weight college
   <dbl> <chr>       <chr>             <dbl>         <dbl>         <dbl> <chr>  
 1     0 Dennis Rod… CHI                  36          198.          99.8 Southe…
 2     1 Dwayne Sch… LAC                  28          216.         118.  Florida
 3     2 Earl Curet… TOR                  39          206.          95.3 Detroi…
 4     3 Ed O'Bannon DAL                  24          203.         101.  UCLA   
 5     4 Ed Pinckney MIA                  34          206.         109.  Villan…
 6     5 Eddie John… HOU                  38          201.          97.5 Illino…
 7     6 Eddie Jones LAL                  25          198.          86.2 Temple 
 8     7 Elden Camp… LAL                  28          213.         113.  Clemson
 9     8 Eldridge R… ATL                  29          193.          86.2 Washin…
10     9 Elliot Per… MIL                  28          183.          72.6 Memphis
# ℹ 12,295 more rows
# ℹ 15 more variables: country <chr>, draft_year <dbl>, draft_round <dbl>,
#   draft_number <dbl>, gp <dbl>, pts <dbl>, reb <dbl>, ast <dbl>,
#   net_rating <dbl>, oreb_pct <dbl>, dreb_pct <dbl>, usg_pct <dbl>,
#   ts_pct <dbl>, ast_pct <dbl>, season <chr>

Observe that now there is additional meta-data: # Groups:   college [345] indicating that the grouping structure meta-data has been set based on the unique values of the variable college. On the other hand, observe that the data has not changed: it is still a table of 12305 \(\times\) 22 values.

Only by combining a group_by() with another data wrangling operation, in this case summarize(), will the data actually be transformed.

nba %>% 
  group_by(college) %>% 
  summarize(mean = mean(pts))

# A tibble: 345 × 2
   college                   mean
   <chr>                    <dbl>
 1 ""                        9.9 
 2 "Alabama"                 9.21
 3 "Alabama A&M"             2.2 
 4 "Alabama Huntsville"      2.05
 5 "Alabama-Birmingham"      2.4 
 6 "Albany State (GA)"       0.45
 7 "American International"  8.34
 8 "American University"     6   
 9 "Arizona"                 8.93
10 "Arizona St."             0   
# ℹ 335 more rows

If you would like to remove this grouping structure meta-data, we can pipe the resulting data frame into the ungroup() function:

nba %>% 
  group_by(college) %>% 
  ungroup()

# A tibble: 12,305 × 22
    ...1 player_name team_abbreviation   age player_height player_weight college
   <dbl> <chr>       <chr>             <dbl>         <dbl>         <dbl> <chr>  
 1     0 Dennis Rod… CHI                  36          198.          99.8 Southe…
 2     1 Dwayne Sch… LAC                  28          216.         118.  Florida
 3     2 Earl Curet… TOR                  39          206.          95.3 Detroi…
 4     3 Ed O'Bannon DAL                  24          203.         101.  UCLA   
 5     4 Ed Pinckney MIA                  34          206.         109.  Villan…
 6     5 Eddie John… HOU                  38          201.          97.5 Illino…
 7     6 Eddie Jones LAL                  25          198.          86.2 Temple 
 8     7 Elden Camp… LAL                  28          213.         113.  Clemson
 9     8 Eldridge R… ATL                  29          193.          86.2 Washin…
10     9 Elliot Per… MIL                  28          183.          72.6 Memphis
# ℹ 12,295 more rows
# ℹ 15 more variables: country <chr>, draft_year <dbl>, draft_round <dbl>,
#   draft_number <dbl>, gp <dbl>, pts <dbl>, reb <dbl>, ast <dbl>,
#   net_rating <dbl>, oreb_pct <dbl>, dreb_pct <dbl>, usg_pct <dbl>,
#   ts_pct <dbl>, ast_pct <dbl>, season <chr>

Observe how the # Groups:   college [345] meta-data is no longer present.

Let’s now revisit the n() counting summary function we briefly introduced previously. Recall that the n() function counts rows. This is opposed to the sum() summary function that returns the sum of a numerical variable. For example, suppose we’d like to count how many NBA players went to each of the different colleges, we can run this:

by_college <- nba %>% 
  group_by(college) %>% 
  summarize(count = n())
by_college

# A tibble: 345 × 2
   college                  count
   <chr>                    <int>
 1 ""                           5
 2 "Alabama"                  119
 3 "Alabama A&M"                1
 4 "Alabama Huntsville"         2
 5 "Alabama-Birmingham"         7
 6 "Albany State (GA)"          2
 7 "American International"     5
 8 "American University"        2
 9 "Arizona"                  279
10 "Arizona St."                1
# ℹ 335 more rows
…
6.5.1 Grouping by more than one variable

You are not limited to grouping by one variable. Say you want to know the number of players coming from each college for each NBA season. We can also group by a second variable season using group_by(college, season):

by_college_annually <- nba %>% 
  group_by(college, season) %>% 
  summarize(count = n())

`summarise()` has grouped output by 'college'. You can override using the
`.groups` argument.

by_college_annually

# A tibble: 3,637 × 3
# Groups:   college [345]
   college   season  count
   <chr>     <chr>   <int>
 1 ""        2017-18     2
 2 ""        2018-19     2
 3 ""        2020-21     1
 4 "Alabama" 1996-97     9
 5 "Alabama" 1997-98    10
 6 "Alabama" 1998-99     8
 7 "Alabama" 1999-00     6
 8 "Alabama" 2000-01     7
 9 "Alabama" 2001-02     6
10 "Alabama" 2002-03     4
# ℹ 3,627 more rows

Observe that there are now 3637 rows to by_college_annually because there are 12305 unique colleges.

Why do we group_by(college, season) and not group_by(college) and then group_by(season)? Let’s investigate:

by_college_annually_incorrect <- nba %>% 
  group_by(college) %>% 
  group_by(season) %>% 
  summarize(count = n())
by_college_annually_incorrect

# A tibble: 26 × 2
   season  count
   <chr>   <int>
 1 1996-97   441
 2 1997-98   439
 3 1998-99   439
 4 1999-00   438
 5 2000-01   441
 6 2001-02   440
 7 2002-03   428
 8 2003-04   442
 9 2004-05   464
10 2005-06   458
# ℹ 16 more rows
…
nba <- nba %>% 
  mutate(player_height_in_inch = player_height / 2.54)

In this code, we mutate() the nba data frame by creating a new variable player_height_in_inch = height / 2.54 and then overwrite the original nba data frame. Why did we overwrite the data frame nba, instead of assigning the result to a new data frame like nba_new? As a rough rule of thumb, as long as you are not losing original information that you might need later, it’s acceptable practice to overwrite existing data frames with updated ones, as we did here. On the other hand, why did we not overwrite the variable player_height, but instead created a new variable called player_height_in_inch? Because if we did this, we would have erased the original information contained in player_height of temperatures in centimeters that may still be valuable to us.

Let’s now compute average heights in both inches and centimeters using the group_by() and summarize():

summary_college_height <- nba %>%
    group_by(college) %>% 
    summarize(mean_height_in_inch_in_cm = mean(player_height),
              mean_height_in_inch_in_in = mean(player_height_in_inch))
summary_college_height

# A tibble: 345 × 3
   college                  mean_height_in_inch_in_cm mean_height_in_inch_in_in
   <chr>                                        <dbl>                     <dbl>
 1 ""                                            204.                      80.2
 2 "Alabama"                                     200.                      78.6
 3 "Alabama A&M"                                 211.                      83  
 4 "Alabama Huntsville"                          185.                      73  
 5 "Alabama-Birmingham"                          196.                      77.1
 6 "Albany State (GA)"                           206.                      81  
 7 "American International"                      196.                      77  
 8 "American University"                         190.                      75  
 9 "Arizona"                                     198.                      77.8
10 "Arizona St."                                 196.                      77  
# ℹ 335 more rows
…
6.7 arrange

One of the most commonly performed data wrangling tasks is to sort a data frame’s rows in the alphanumeric order of one of the variables. The dplyr package’s arrange() function allows us to sort/reorder a data frame’s rows according to the values of the specified variable.

Suppose we are interested in determining the average number of points per game scored by NBA players from different colleges:

mean_pts <- nba %>% 
  group_by(college) %>% 
  summarize(mean = mean(pts), 
            std_dev = sd(pts))
mean_pts

# A tibble: 345 × 3
   college                   mean std_dev
   <chr>                    <dbl>   <dbl>
 1 ""                        9.9    3.79 
 2 "Alabama"                 9.21   5.83 
 3 "Alabama A&M"             2.2   NA    
 4 "Alabama Huntsville"      2.05   0.778
 5 "Alabama-Birmingham"      2.4    1.42 
 6 "Albany State (GA)"       0.45   0.212
 7 "American International"  8.34   2.71 
 8 "American University"     6      8.49 
 9 "Arizona"                 8.93   5.83 
10 "Arizona St."             0     NA    
# ℹ 335 more rows

Observe that by default the rows of the resulting mean_pts data frame are sorted in alphabetical order of college. Say instead we would like to see the same data, but sorted from the highest to the lowest average points (mean) instead:

mean_pts %>% 
  arrange(mean)

# A tibble: 345 × 3
   college                         mean std_dev
   <chr>                          <dbl>   <dbl>
 1 Arizona St.                     0     NA    
 2 Chicago St.                     0     NA    
 3 Denver                          0     NA    
 4 Fairfield                       0     NA    
 5 George Mason                    0     NA    
 6 Lebanon Valley                  0     NA    
 7 Lincoln Memorial                0     NA    
 8 University of Colorado Boulder  0     NA    
 9 Toledo                          0.2   NA    
10 Albany State (GA)               0.45   0.212
# ℹ 335 more rows

This is, however, the opposite of what we want. The rows are sorted with the least frequent destination airports displayed first. This is because arrange() always returns rows sorted in ascending order by default. To switch the ordering to be in “descending” order instead, we use the desc() function as so:

mean_pts %>% 
  arrange(desc(mean))

# A tibble: 345 × 3
   college                           mean std_dev
   <chr>                            <dbl>   <dbl>
 1 Davidson                          19.6    9.95
 2 Lehigh                            18.4    7.06
 3 Western Carolina                  16.1    7.50
 4 Navy                              15.4    4.25
 5 Marist                            15.4    1.92
 6 Butler Community College          13.6    6.57
 7 Louisiana Tech                    13.5    6.78
 8 Trinity Valley Community College  13.5    6.63
 9 Weber State                       13.3   11.6 
10 Central Arkansas                  13.1    4.73
# ℹ 335 more rows
…
