statslab - 9 Exploratory Data Analysis
…
nba <- read_csv("./data/nba_all_seasons.csv", na = c("Undrafted"))

New names:
Rows: 12305 Columns: 22
── Column specification
──────────────────────────────────────────────────────── Delimiter: "," chr
(5): player_name, team_abbreviation, college, country, season dbl (17): ...1,
age, player_height, player_weight, draft_year, draft_round, ...
ℹ Use `spec()` to retrieve the full column specification for this data. ℹ
Specify the column types or set `show_col_types = FALSE` to quiet this message.
• `` -> `...1`

nba

# A tibble: 12,305 × 22
    ...1 player_name team_abbreviation   age player_height player_weight college
   <dbl> <chr>       <chr>             <dbl>         <dbl>         <dbl> <chr>  
 1     0 Dennis Rod… CHI                  36          198.          99.8 Southe…
 2     1 Dwayne Sch… LAC                  28          216.         118.  Florida
 3     2 Earl Curet… TOR                  39          206.          95.3 Detroi…
 4     3 Ed O'Bannon DAL                  24          203.         101.  UCLA   
 5     4 Ed Pinckney MIA                  34          206.         109.  Villan…
 6     5 Eddie John… HOU                  38          201.          97.5 Illino…
 7     6 Eddie Jones LAL                  25          198.          86.2 Temple 
 8     7 Elden Camp… LAL                  28          213.         113.  Clemson
 9     8 Eldridge R… ATL                  29          193.          86.2 Washin…
10     9 Elliot Per… MIL                  28          183.          72.6 Memphis
# ℹ 12,295 more rows
# ℹ 15 more variables: country <chr>, draft_year <dbl>, draft_round <dbl>,
#   draft_number <dbl>, gp <dbl>, pts <dbl>, reb <dbl>, ast <dbl>,
#   net_rating <dbl>, oreb_pct <dbl>, dreb_pct <dbl>, usg_pct <dbl>,
#   ts_pct <dbl>, ast_pct <dbl>, season <chr>
…
