statslab - 11 Hypothesis Testing
…
11.3.1 infer package workflow

1. specify variables

We use the specify() verb to specify the response variable and, if needed, any explanatory variables for our study. In this case, because we are interested in any potential effects of gender on promotion decisions, we set decision as the response variable and gender as the explanatory variable. We do so using formula = response ~ explanatory where response is the name of the response variable in the data frame and explanatory is the name of the explanatory variable. So in our case it is decision ~ gender. The format of this, including the ~, is something we will see repeatedly as we build increasingly complex statistical models. So it may seem a bit odd now, but it is it not unique to the infer and you might as well get familiar with it now.

Given that we are interested in the proportion of resumes "promoted", and not the proportion of resumes not promoted, we set the argument success to "promoted".

promotions %>%
    specify(formula = decision ~ gender,
            success = "promoted") 

Response: decision (factor)
Explanatory: gender (factor)
# A tibble: 48 × 2
   decision gender
   <fct>    <fct> 
 1 promoted male  
 2 promoted male  
 3 promoted male  
 4 promoted male  
 5 promoted male  
 6 promoted male  
 7 promoted male  
 8 promoted male  
 9 promoted male  
10 promoted male  
# ℹ 38 more rows
…
"point" for hypotheses involving a single sample or

"independence" for hypotheses involving two samples.

In our case, since we have two samples (the resumes with “male” and “female” names), we set null = "independence".

promotions %>% 
  specify(formula = decision ~ gender, success = "promoted") %>% 
  hypothesize(null = "independence")

Response: decision (factor)
Explanatory: gender (factor)
Null Hypothesis: independence
# A tibble: 48 × 2
   decision gender
   <fct>    <fct> 
 1 promoted male  
 2 promoted male  
 3 promoted male  
 4 promoted male  
 5 promoted male  
 6 promoted male  
 7 promoted male  
 8 promoted male  
 9 promoted male  
10 promoted male  
# ℹ 38 more rows
…
For each of our 1000 shuffles, we can calculate this test statistic by setting stat = "diff in props". Furthermore, since we are interested in \(\widehat{p}_{m} - \widehat{p}_{f}\) we set order = c("male", "female"). As we stated earlier, the order of the subtraction does not matter, so long as you stay consistent throughout your analysis and tailor your interpretations accordingly.

Let’s save the result in a data frame called null_distribution:

null_distribution <- promotions %>% 
  specify(formula = decision ~ gender, success = "promoted") %>% 
  hypothesize(null = "independence") %>% 
  generate(reps = 1000, type = "permute") %>% 
  calculate(stat = "diff in props", order = c("male", "female"))
null_distribution

Response: decision (factor)
Explanatory: gender (factor)
Null Hypothesis: independence
# A tibble: 1,000 × 2
   replicate    stat
       <int>   <dbl>
 1         1 -0.125 
 2         2 -0.0417
 3         3 -0.0417
 4         4 -0.0417
 5         5 -0.0417
 6         6  0.208 
 7         7 -0.125 
 8         8  0.125 
 9         9 -0.0417
10        10  0.208 
# ℹ 990 more rows
…
For each of our 1000 shuffles, we can calculate this test statistic by setting stat = "diff in means". Furthermore, since we are interested in \(\overline{x}_{MJ} - \overline{x}_{SC}\), we set order = c("Michael Jordan", "Stephen Curry"). Let’s save the results in a data frame called null_distribution_movies:

null_distribution_mjsc <- mjsc %>%
    specify(formula = pts ~ player_name) %>%
    hypothesize(null = "independence") %>%
    generate(reps = 1000, type = "permute") %>%
    calculate(stat = "diff in means",
              order = c("Michael Jordan",
                        "Stephen Curry"))
null_distribution_mjsc

Response: pts (numeric)
Explanatory: player_name (factor)
Null Hypothesis: independence
# A tibble: 1,000 × 2
   replicate   stat
       <int>  <dbl>
 1         1  1.70 
 2         2 -2.55 
 3         3 -3.59 
 4         4 -2.12 
 5         5  3.57 
 6         6 -2.42 
 7         7 -0.292
 8         8  0.688
 9         9  2.68 
10        10 -1.11 
# ℹ 990 more rows
…
