statslab - 16 Multiple Regression
…
16.1.3 Observed/fitted values and residuals

Let’s also compute all fitted values and residuals for our regression model and present the first 10 rows of output. Thinking about the 3D scatterplot in Figure 16.2, the coordinates of each point in the scatterplot is a triplet of pts, ast, and reb from our data. The fitted values that lie on the regression plan can be found using the equation above.

pts_model %>%
    # expand model result
    augment() %>%
    # select relevant columns
    select(c("pts", "ast", "reb", ".fitted", ".resid")) %>%
    # rename columns
    rename_at(vars(c(".fitted", ".resid")), ~c("pts_hat", "residual"))

# A tibble: 12,305 × 5
     pts   ast   reb pts_hat residual
   <dbl> <dbl> <dbl>   <dbl>    <dbl>
 1   5.7   3.1  16.1   25.4   -19.7  
 2   2.3   0.3   1.5    2.99   -0.692
 3   0.8   0.4   1      2.58   -1.78 
 4   3.7   0.6   2.3    4.48   -0.785
 5   2.4   0.2   2.4    3.88   -1.48 
 6   8.2   1     2.7    5.68    2.52 
 7  17.2   3.4   4.1   11.7     5.52 
 8  14.9   1.6   8     13.1     1.83 
 9   5.7   1.3   1.6    4.92    0.784
10   6.9   3     1.5    7.86   -0.964
# ℹ 12,295 more rows
…
