statslab - 15 Sampling
…
Mix the contents of the bowl a little to not let a previous group’s results influence the next group’s.

Each of our 33 groups of friends make note of their proportion of red balls from their sample collected. Each group then notes the proportion of their 50 balls that were red. If we entered each group’s measurements into a dta frame, it would look something like this:

Rows: 33 Columns: 4
── Column specification ────────────────────────────────────────────────────────
Delimiter: ","
chr (1): group
dbl (3): replicate, red_balls, prop_red

ℹ Use `spec()` to retrieve the full column specification for this data.
ℹ Specify the column types or set `show_col_types = FALSE` to quiet this message.

# A tibble: 33 × 4
   group            replicate red_balls prop_red
   <chr>                <dbl>     <dbl>    <dbl>
 1 Ilyas, Yohan             1        21     0.42
 2 Morgan, Terrance         2        17     0.34
 3 Martin, Thomas           3        21     0.42
 4 Clark, Frank             4        21     0.42
 5 Riddhi, Karina           5        18     0.36
 6 Andrew, Tyler            6        19     0.38
 7 Julia                    7        19     0.38
 8 Rachel, Lauren           8        11     0.22
 9 Daniel, Caroline         9        15     0.3 
10 Josh, Maeve             10        17     0.34
# ℹ 23 more rows
…
Note that the replicate variable indicates which “use” of our virtual shovel that row corresponds to. So rows where replicate=1 correspond to our first “scoop” of fruit, rows where replicate=12 correspond to our second “scoop” of fruit, and so on.

Now let’s return to our bowl and take a single scoop.

virtual_shovel <- bowl %>% 
  rep_sample_n(size = 50)
virtual_shovel

# A tibble: 50 × 3
# Groups:   replicate [1]
   replicate ball_ID color
       <int>   <dbl> <chr>
 1         1      82 red  
 2         1    1372 red  
 3         1    1032 white
 4         1     141 white
 5         1    2019 red  
 6         1    1507 white
 7         1    1606 white
 8         1    1380 white
 9         1    1765 red  
10         1    1652 white
# ℹ 40 more rows

Observe that virtual_shovel has 50 rows corresponding to our virtual sample of size 50. The ball_ID variable identifies which of the 2400 balls from bowl are included in our sample of 50 balls while color denotes its color, and replicate again indicates which “scoop” the row came from.

Let’s compute the proportion of balls in our virtual sample that are red using the dplyr data wrangling verbs you learned in Chapter 7 First, for each of our 50 sampled balls, let’s identify if it is red or not using a test for equality with ==. Let’s create a new Boolean variable is_red using the mutate() function from Section 7.7:

virtual_shovel %>% 
  mutate(is_red = (color == "red"))

# A tibble: 50 × 4
# Groups:   replicate [1]
   replicate ball_ID color is_red
       <int>   <dbl> <chr> <lgl> 
 1         1      82 red   TRUE  
 2         1    1372 red   TRUE  
 3         1    1032 white FALSE 
 4         1     141 white FALSE 
 5         1    2019 red   TRUE  
 6         1    1507 white FALSE 
 7         1    1606 white FALSE 
 8         1    1380 white FALSE 
 9         1    1765 red   TRUE  
10         1    1652 white FALSE 
# ℹ 40 more rows
…
Great! 30% of virtual_shovel’s 50 balls were red! So based on this particular sample of 50 balls, our guess at the proportion of the bowl’s balls that are red is 30%. But remember from our earlier tactile sampling activity that if we repeat this sampling, we will not necessarily obtain the same value of 30% again. There will likely be some variation. In fact, our 33 groups of friends computed 33 such proportions whose distribution we visualized in Figure 15.4. We saw that these estimates varied. Let’s now perform the virtual analog of having 33 groups of students use the sampling shovel!

15.2.2 Using the virtual shovel 33 times

Recall that in our tactile sampling exercise in Section 15.1, we had 33 groups of students each use the shovel, yielding 33 samples of size 50 balls. We then used these 33 samples to compute 33 proportions. In other words, we repeated/replicated using the shovel 33 times. We can perform this repeated/replicated sampling virtually by once again using our virtual shovel function rep_sample_n(), but by adding the reps = 33 argument. This is telling R that we want to repeat the sampling 33 times.

We’ll save these results in a data frame called virtual_samples. Though we provide a preview of the first 10 rows of virtual_samples in what follows, we highly suggest you scroll through its contents using RStudio’s spreadsheet viewer by running View(virtual_samples).

virtual_samples <- bowl %>% 
  rep_sample_n(size = 50, reps = 33)
virtual_samples

# A tibble: 1,650 × 3
# Groups:   replicate [33]
   replicate ball_ID color
       <int>   <dbl> <chr>
 1         1      90 white
 2         1     816 red  
 3         1    1812 white
 4         1    1263 white
 5         1    1784 white
 6         1    1269 red  
 7         1     978 white
 8         1    1386 red  
 9         1    1501 white
10         1     214 white
# ℹ 1,640 more rows

Observe in the spreadsheet viewer that the first 50 rows of replicate are equal to 1 while the next 50 rows of replicate are equal to 2. This is telling us that the first 50 rows correspond to the first sample of 50 balls while the next 50 rows correspond to the second sample of 50 balls. This pattern continues for all reps = 33 replicates and thus virtual_samples has 33 \(\cdot\) 50 = 1650 rows.

Let’s now take virtual_samples and compute the resulting 33 proportions red. We’ll use the same dplyr verbs as before, but this time with an additional group_by() of the replicate variable. Recall from Section Section 7.6 that by assigning the grouping variable “meta-data” before we summarize(), we’ll obtain 33 different proportions red. We display a preview of the first 10 out of 33 rows:

virtual_prop_red <- virtual_samples %>% 
  group_by(replicate) %>% 
  summarize(red = sum(color == "red")) %>% 
  mutate(prop_red = red / 50)
virtual_prop_red

# A tibble: 33 × 3
   replicate   red prop_red
       <int> <int>    <dbl>
 1         1    20     0.4 
 2         2    21     0.42
 3         3    21     0.42
 4         4    21     0.42
 5         5    21     0.42
 6         6    18     0.36
 7         7    16     0.32
 8         8    14     0.28
 9         9    15     0.3 
10        10    22     0.44
# ℹ 23 more rows
…
Figure 15.6: Comparing 33 virtual and 33 tactile proportions red.

15.2.3 Using the virtual shovel 1000 times

Now say we want to study the effects of sampling variation not for 33 samples, but rather for a larger number of samples, say 1000. We have two choices at this point. We could have our groups of friends manually take 1000 samples of 50 balls and compute the corresponding 1000 proportions. However, this would be a tedious and time-consuming task. This is where computers excel: automating long and repetitive tasks while performing them quite quickly. Thus, at this point we will abandon tactile sampling in favor of only virtual sampling. Let’s once again use the rep_sample_n() function with sample size set to be 50 once again, but this time with the number of replicates reps set to 1000. Be sure to scroll through the contents of virtual_samples in RStudio’s viewer.

virtual_samples <- bowl %>% 
  rep_sample_n(size = 50, reps = 1000)
virtual_samples

# A tibble: 50,000 × 3
# Groups:   replicate [1,000]
   replicate ball_ID color
       <int>   <dbl> <chr>
 1         1    1575 red  
 2         1     580 white
 3         1     552 white
 4         1     969 white
 5         1     240 red  
 6         1    1134 white
 7         1    1762 red  
 8         1     889 red  
 9         1    1000 red  
10         1     538 white
# ℹ 49,990 more rows

Observe that now virtual_samples has 1000 \(\cdot\) 50 = 50,000 rows, instead of the 33 \(\cdot\) 50 = 1650 rows from earlier. Using the same data wrangling code as earlier, let’s take the data frame virtual_samples with 1000 \(\cdot\) 50 = 50,000 rows and compute the resulting 1000 proportions of red balls.

virtual_prop_red <- virtual_samples %>% 
  group_by(replicate) %>% 
  summarize(red = sum(color == "red")) %>% 
  mutate(prop_red = red / 50)
virtual_prop_red

# A tibble: 1,000 × 3
   replicate   red prop_red
       <int> <int>    <dbl>
 1         1    22     0.44
 2         2    25     0.5 
 3         3    17     0.34
 4         4    11     0.22
 5         5    25     0.5 
 6         6    16     0.32
 7         7    18     0.36
 8         8    24     0.48
 9         9    20     0.4 
10        10    22     0.44
# ℹ 990 more rows
…
In real-life sampling, not only will the population size \(N\) be very large making a census expensive, but sometimes we won’t even know how big the population is! For now however, we press on with our next set of terms and notation.

The second set of terms and notation relate to samples:

Sampling is the act of collecting a sample from the population, which we generally only do when we can’t perform a census. We mathematically denote the sample size using lower case \(n\), as opposed to upper case \(N\) which denotes the population’s size. Typically the sample size \(n\) is much smaller than the population size \(N\). Thus sampling is a much cheaper alternative than performing a census.

A point estimate, also known as a sample statistic, is a summary statistic computed from a sample that estimates the unknown population parameter.

So previously we conducted sampling using a shovel with 50 slots to extract samples of size \(n\) = 50. To perform the virtual analog of this sampling, recall that we used the rep_sample_n() function as follows:

virtual_shovel <- bowl %>% 
  rep_sample_n(size = 50)
virtual_shovel

# A tibble: 50 × 3
# Groups:   replicate [1]
   replicate ball_ID color
       <int>   <dbl> <chr>
 1         1     512 white
 2         1     637 white
 3         1    1621 white
 4         1     183 red  
 5         1    2389 white
 6         1     500 white
 7         1    2029 white
 8         1    2243 white
 9         1    1374 red  
10         1    1394 red  
# ℹ 40 more rows
…
